{
	"name":   "Concurrency Template",
	"key":    "thp_concurrency",
	"repo":   "https://gitlab.com/the-humble-programmer-templates/concurrency-template.git",
	"email":  "kirinnee97@gmail.com",
	"readme": "README.MD"
}
